{
    "data": [
        {
            "type": "user-managements",
            "id": "46",
            "attributes": {
                "email": "test18@mail.com",
                "nomor-handphone": "083467367167",
                "nama-lengkap": "test18",
                "business-segments-id": null,
                "business-segments-name": "",
                "jabatan-id": null,
                "jabatan-name": "",
                "nomor-tlp": null,
                "tanggal-lahir": null,
                "alamat": null,
                "long": null,
                "lat": null,
                "provinsi": null,
                "kota-kabupaten": null,
                "kecamatan": null,
                "kelurahan": null,
                "jumlah-unit-dutro": null,
                "jumlah-unit-ranger": null,
                "jumlah-unit-profia": null,
                "jumlah-unit-bus": null,
                "profile-pictures": null,
                "profile-pictures-id": "",
                "profile-pictures-original-file-name": "",
                "profile-pictures-uploaded-file-name": "",
                "last-login": null,
                "login-count": null,
                "is-new-user": true,
                "is-account-verified": true,
                "is-email-valid": true,
                "employee-no": null,
                "core-users-id": null,
                "core-users-name": "",
                "created-by": null,
                "updated-by": null,
                "nama-perusahaan": null,
                "password": "",
                "confirm-password": "",
                "token": null,
                "is-hearts": false,
                "referral-code": null,
                "is-sso": null
            },
            "relationships": {
                "business-segment": {
                    "data": null
                }
            }
        },
        {
            "type": "user-managements",
            "id": "47",
            "attributes": {
                "email": "test19@mail.com",
                "nomor-handphone": "08426764722674",
                "nama-lengkap": "test19",
                "business-segments-id": null,
                "business-segments-name": "",
                "jabatan-id": null,
                "jabatan-name": "",
                "nomor-tlp": null,
                "tanggal-lahir": null,
                "alamat": null,
                "long": null,
                "lat": null,
                "provinsi": null,
                "kota-kabupaten": null,
                "kecamatan": null,
                "kelurahan": null,
                "jumlah-unit-dutro": null,
                "jumlah-unit-ranger": null,
                "jumlah-unit-profia": null,
                "jumlah-unit-bus": null,
                "profile-pictures": null,
                "profile-pictures-id": "",
                "profile-pictures-original-file-name": "",
                "profile-pictures-uploaded-file-name": "",
                "last-login": null,
                "login-count": null,
                "is-new-user": true,
                "is-account-verified": true,
                "is-email-valid": true,
                "employee-no": null,
                "core-users-id": null,
                "core-users-name": "",
                "created-by": null,
                "updated-by": null,
                "nama-perusahaan": null,
                "password": "",
                "confirm-password": "",
                "token": null,
                "is-hearts": false,
                "referral-code": null,
                "is-sso": null
            },
            "relationships": {
                "business-segment": {
                    "data": null
                }
            }
        },
        {
            "type": "user-managements",
            "id": "48",
            "attributes": {
                "email": "test20@mail.com",
                "nomor-handphone": "0813738711387",
                "nama-lengkap": "test20",
                "business-segments-id": null,
                "business-segments-name": "",
                "jabatan-id": null,
                "jabatan-name": "",
                "nomor-tlp": null,
                "tanggal-lahir": null,
                "alamat": null,
                "long": null,
                "lat": null,
                "provinsi": null,
                "kota-kabupaten": null,
                "kecamatan": null,
                "kelurahan": null,
                "jumlah-unit-dutro": null,
                "jumlah-unit-ranger": null,
                "jumlah-unit-profia": null,
                "jumlah-unit-bus": null,
                "profile-pictures": null,
                "profile-pictures-id": "",
                "profile-pictures-original-file-name": "",
                "profile-pictures-uploaded-file-name": "",
                "last-login": null,
                "login-count": null,
                "is-new-user": true,
                "is-account-verified": true,
                "is-email-valid": true,
                "employee-no": null,
                "core-users-id": null,
                "core-users-name": "",
                "created-by": null,
                "updated-by": null,
                "nama-perusahaan": null,
                "password": "",
                "confirm-password": "",
                "token": null,
                "is-hearts": false,
                "referral-code": null,
                "is-sso": null
            },
            "relationships": {
                "business-segment": {
                    "data": null
                }
            }
        },
        {
            "type": "user-managements",
            "id": "49",
            "attributes": {
                "email": "test21@mail.com",
                "nomor-handphone": "0831378137187",
                "nama-lengkap": "test21",
                "business-segments-id": null,
                "business-segments-name": "",
                "jabatan-id": null,
                "jabatan-name": "",
                "nomor-tlp": null,
                "tanggal-lahir": null,
                "alamat": null,
                "long": null,
                "lat": null,
                "provinsi": null,
                "kota-kabupaten": null,
                "kecamatan": null,
                "kelurahan": null,
                "jumlah-unit-dutro": null,
                "jumlah-unit-ranger": null,
                "jumlah-unit-profia": null,
                "jumlah-unit-bus": null,
                "profile-pictures": null,
                "profile-pictures-id": "",
                "profile-pictures-original-file-name": "",
                "profile-pictures-uploaded-file-name": "",
                "last-login": null,
                "login-count": null,
                "is-new-user": true,
                "is-account-verified": true,
                "is-email-valid": true,
                "employee-no": null,
                "core-users-id": null,
                "core-users-name": "",
                "created-by": null,
                "updated-by": null,
                "nama-perusahaan": null,
                "password": "",
                "confirm-password": "",
                "token": null,
                "is-hearts": false,
                "referral-code": null,
                "is-sso": null
            },
            "relationships": {
                "business-segment": {
                    "data": null
                }
            }
        },
        {
            "type": "user-managements",
            "id": "50",
            "attributes": {
                "email": "test22@mail.com",
                "nomor-handphone": "083137818713",
                "nama-lengkap": "test22",
                "business-segments-id": null,
                "business-segments-name": "",
                "jabatan-id": null,
                "jabatan-name": "",
                "nomor-tlp": null,
                "tanggal-lahir": null,
                "alamat": null,
                "long": null,
                "lat": null,
                "provinsi": null,
                "kota-kabupaten": null,
                "kecamatan": null,
                "kelurahan": null,
                "jumlah-unit-dutro": null,
                "jumlah-unit-ranger": null,
                "jumlah-unit-profia": null,
                "jumlah-unit-bus": null,
                "profile-pictures": null,
                "profile-pictures-id": "",
                "profile-pictures-original-file-name": "",
                "profile-pictures-uploaded-file-name": "",
                "last-login": null,
                "login-count": null,
                "is-new-user": true,
                "is-account-verified": true,
                "is-email-valid": true,
                "employee-no": null,
                "core-users-id": null,
                "core-users-name": "",
                "created-by": null,
                "updated-by": null,
                "nama-perusahaan": null,
                "password": "",
                "confirm-password": "",
                "token": null,
                "is-hearts": false,
                "referral-code": null,
                "is-sso": null
            },
            "relationships": {
                "business-segment": {
                    "data": null
                }
            }
        },
        {
            "type": "user-managements",
            "id": "51",
            "attributes": {
                "email": "test23@mail.com",
                "nomor-handphone": "08426742672467",
                "nama-lengkap": "test23",
                "business-segments-id": null,
                "business-segments-name": "",
                "jabatan-id": null,
                "jabatan-name": "",
                "nomor-tlp": null,
                "tanggal-lahir": null,
                "alamat": null,
                "long": null,
                "lat": null,
                "provinsi": null,
                "kota-kabupaten": null,
                "kecamatan": null,
                "kelurahan": null,
                "jumlah-unit-dutro": null,
                "jumlah-unit-ranger": null,
                "jumlah-unit-profia": null,
                "jumlah-unit-bus": null,
                "profile-pictures": null,
                "profile-pictures-id": "",
                "profile-pictures-original-file-name": "",
                "profile-pictures-uploaded-file-name": "",
                "last-login": null,
                "login-count": null,
                "is-new-user": true,
                "is-account-verified": true,
                "is-email-valid": true,
                "employee-no": null,
                "core-users-id": null,
                "core-users-name": "",
                "created-by": null,
                "updated-by": null,
                "nama-perusahaan": null,
                "password": "",
                "confirm-password": "",
                "token": null,
                "is-hearts": false,
                "referral-code": null,
                "is-sso": null
            },
            "relationships": {
                "business-segment": {
                    "data": null
                }
            }
        },
        {
            "type": "user-managements",
            "id": "58",
            "attributes": {
                "email": "test104@mail.com",
                "nomor-handphone": "0842676724526",
                "nama-lengkap": "test104",
                "business-segments-id": null,
                "business-segments-name": "",
                "jabatan-id": null,
                "jabatan-name": "",
                "nomor-tlp": null,
                "tanggal-lahir": null,
                "alamat": null,
                "long": null,
                "lat": null,
                "provinsi": null,
                "kota-kabupaten": null,
                "kecamatan": null,
                "kelurahan": null,
                "jumlah-unit-dutro": null,
                "jumlah-unit-ranger": null,
                "jumlah-unit-profia": null,
                "jumlah-unit-bus": null,
                "profile-pictures": null,
                "profile-pictures-id": "",
                "profile-pictures-original-file-name": "",
                "profile-pictures-uploaded-file-name": "",
                "last-login": null,
                "login-count": null,
                "is-new-user": true,
                "is-account-verified": true,
                "is-email-valid": true,
                "employee-no": null,
                "core-users-id": null,
                "core-users-name": "",
                "created-by": null,
                "updated-by": null,
                "nama-perusahaan": null,
                "password": "",
                "confirm-password": "",
                "token": null,
                "is-hearts": false,
                "referral-code": null,
                "is-sso": null
            },
            "relationships": {
                "business-segment": {
                    "data": null
                }
            }
        },
        {
            "type": "user-managements",
            "id": "52",
            "attributes": {
                "email": "24@mail.com",
                "nomor-handphone": "083611681368368",
                "nama-lengkap": "24dwad",
                "business-segments-id": null,
                "business-segments-name": "",
                "jabatan-id": null,
                "jabatan-name": "",
                "nomor-tlp": null,
                "tanggal-lahir": null,
                "alamat": null,
                "long": null,
                "lat": null,
                "provinsi": null,
                "kota-kabupaten": null,
                "kecamatan": null,
                "kelurahan": null,
                "jumlah-unit-dutro": null,
                "jumlah-unit-ranger": null,
                "jumlah-unit-profia": null,
                "jumlah-unit-bus": null,
                "profile-pictures": null,
                "profile-pictures-id": "",
                "profile-pictures-original-file-name": "",
                "profile-pictures-uploaded-file-name": "",
                "last-login": null,
                "login-count": null,
                "is-new-user": true,
                "is-account-verified": true,
                "is-email-valid": true,
                "employee-no": null,
                "core-users-id": null,
                "core-users-name": "",
                "created-by": null,
                "updated-by": null,
                "nama-perusahaan": null,
                "password": "",
                "confirm-password": "",
                "token": null,
                "is-hearts": false,
                "referral-code": null,
                "is-sso": null
            },
            "relationships": {
                "business-segment": {
                    "data": null
                }
            }
        },
        {
            "type": "user-managements",
            "id": "53",
            "attributes": {
                "email": "test25@mail.com",
                "nomor-handphone": "0837167136731",
                "nama-lengkap": "test25",
                "business-segments-id": null,
                "business-segments-name": "",
                "jabatan-id": null,
                "jabatan-name": "",
                "nomor-tlp": null,
                "tanggal-lahir": null,
                "alamat": null,
                "long": null,
                "lat": null,
                "provinsi": null,
                "kota-kabupaten": null,
                "kecamatan": null,
                "kelurahan": null,
                "jumlah-unit-dutro": null,
                "jumlah-unit-ranger": null,
                "jumlah-unit-profia": null,
                "jumlah-unit-bus": null,
                "profile-pictures": null,
                "profile-pictures-id": "",
                "profile-pictures-original-file-name": "",
                "profile-pictures-uploaded-file-name": "",
                "last-login": null,
                "login-count": null,
                "is-new-user": true,
                "is-account-verified": true,
                "is-email-valid": true,
                "employee-no": null,
                "core-users-id": null,
                "core-users-name": "",
                "created-by": null,
                "updated-by": null,
                "nama-perusahaan": null,
                "password": "",
                "confirm-password": "",
                "token": null,
                "is-hearts": false,
                "referral-code": null,
                "is-sso": null
            },
            "relationships": {
                "business-segment": {
                    "data": null
                }
            }
        },
        {
            "type": "user-managements",
            "id": "54",
            "attributes": {
                "email": "test26@mail.com",
                "nomor-handphone": "0826366236668",
                "nama-lengkap": "test26",
                "business-segments-id": null,
                "business-segments-name": "",
                "jabatan-id": null,
                "jabatan-name": "",
                "nomor-tlp": null,
                "tanggal-lahir": null,
                "alamat": null,
                "long": null,
                "lat": null,
                "provinsi": null,
                "kota-kabupaten": null,
                "kecamatan": null,
                "kelurahan": null,
                "jumlah-unit-dutro": null,
                "jumlah-unit-ranger": null,
                "jumlah-unit-profia": null,
                "jumlah-unit-bus": null,
                "profile-pictures": null,
                "profile-pictures-id": "",
                "profile-pictures-original-file-name": "",
                "profile-pictures-uploaded-file-name": "",
                "last-login": null,
                "login-count": null,
                "is-new-user": true,
                "is-account-verified": true,
                "is-email-valid": true,
                "employee-no": null,
                "core-users-id": null,
                "core-users-name": "",
                "created-by": null,
                "updated-by": null,
                "nama-perusahaan": null,
                "password": "",
                "confirm-password": "",
                "token": null,
                "is-hearts": false,
                "referral-code": null,
                "is-sso": null
            },
            "relationships": {
                "business-segment": {
                    "data": null
                }
            }
        }
    ],
    "meta": {
        "pagination": {
            "total": 387,
            "count": 10,
            "per_page": 10,
            "current_page": 1,
            "total_pages": 39
        }
    },
    "links": {
        "self": "https:\/\/my.hino.co.id\/myhinoenhancement\/user-managements?filter=&include=business-segment%2C%20jabatan%2C%20profile-picture%2C%20core-user&isFromWeb=true&per_page=10&page=1",
        "first": "https:\/\/my.hino.co.id\/myhinoenhancement\/user-managements?filter=&include=business-segment%2C%20jabatan%2C%20profile-picture%2C%20core-user&isFromWeb=true&per_page=10&page=1",
        "next": "https:\/\/my.hino.co.id\/myhinoenhancement\/user-managements?filter=&include=business-segment%2C%20jabatan%2C%20profile-picture%2C%20core-user&isFromWeb=true&per_page=10&page=2",
        "last": "https:\/\/my.hino.co.id\/myhinoenhancement\/user-managements?filter=&include=business-segment%2C%20jabatan%2C%20profile-picture%2C%20core-user&isFromWeb=true&per_page=10&page=39"
    }
}