{
    "data": [
        {
            "type": "cms-products",
            "id": "10015",
            "attributes": {
                "source-system-no": "202",
                "image": "\/assets\/uploads\/products\/FMX_280_TH-min.png",
                "image-small": "\/assets\/uploads\/products\/FMX_280_TH-min3.png",
                "image-detail": "",
                "image-breadcrumb": null,
                "link-brosur": "",
                "brosur": null,
                "statuses-id": 1,
                "statuses-lookup-code": "",
                "is-homepage": false,
                "sort": 1,
                "slug": "fmx-280-th",
                "cms-product-categories-id": null,
                "cms-product-categories-lookup-code": "",
                "cms-product-categories-meaning": "",
                "cms-product-category-childs-id": 6,
                "cms-product-category-childs-title": "Ranger",
                "cms-product-category-childs-source-system-no": "2",
                "cms-product-sub-category-childs-id": 185,
                "cms-product-sub-category-childs-title": "Tractor Head",
                "cms-product3d-files-id": null,
                "cms-product3d-files-uploaded-file-name": "",
                "is-hino": true,
                "is-e4": true,
                "is-gso": true,
                "created-by": null,
                "updated-by": "12",
                "title": "FMX 280 TH - Euro4",
                "cms-product3d-file-id": null,
                "cms-product3d-file-title": ""
            },
            "relationships": {
                "core-attachment": {
                    "data": null
                }
            }
        },
        {
            "type": "cms-products",
            "id": "9402",
            "attributes": {
                "source-system-no": "66",
                "image": "\/assets\/uploads\/products\/dutro-110-sdl6.png",
                "image-small": "\/assets\/uploads\/products\/dutro-110-sdl7.png",
                "image-detail": "\/assets\/uploads\/products\/dutro-110-sdl8.png",
                "image-breadcrumb": null,
                "link-brosur": "\/assets\/uploads\/brosur\/Dutro-Cargo-201910.pdf",
                "brosur": null,
                "statuses-id": 1,
                "statuses-lookup-code": "",
                "is-homepage": false,
                "sort": 0,
                "slug": "110-sdl-new",
                "cms-product-categories-id": 9,
                "cms-product-categories-lookup-code": "TRUK",
                "cms-product-categories-meaning": "TRUK ",
                "cms-product-category-childs-id": 5,
                "cms-product-category-childs-title": "Dutro",
                "cms-product-category-childs-source-system-no": "1",
                "cms-product-sub-category-childs-id": 181,
                "cms-product-sub-category-childs-title": "CARGO",
                "cms-product3d-files-id": 1,
                "cms-product3d-files-uploaded-file-name": "",
                "is-hino": true,
                "is-e4": false,
                "is-gso": true,
                "created-by": null,
                "updated-by": "12683",
                "title": "110 SDL New",
                "cms-product3d-file-id": 1,
                "cms-product3d-file-title": ""
            },
            "relationships": {
                "core-attachment": {
                    "data": null
                }
            }
        },
        {
            "type": "cms-products",
            "id": "9421",
            "attributes": {
                "source-system-no": "86",
                "image": "\/assets\/uploads\/products\/Picture83.png",
                "image-small": "\/assets\/uploads\/products\/Picture84.png",
                "image-detail": "\/assets\/uploads\/products\/Picture85.png",
                "image-breadcrumb": null,
                "link-brosur": null,
                "brosur": null,
                "statuses-id": 1,
                "statuses-lookup-code": "",
                "is-homepage": false,
                "sort": 21,
                "slug": "fm-285-jw-new",
                "cms-product-categories-id": 9,
                "cms-product-categories-lookup-code": "TRUK",
                "cms-product-categories-meaning": "TRUK ",
                "cms-product-category-childs-id": 6,
                "cms-product-category-childs-title": "Ranger",
                "cms-product-category-childs-source-system-no": "2",
                "cms-product-sub-category-childs-id": 182,
                "cms-product-sub-category-childs-title": "CARGO",
                "cms-product3d-files-id": null,
                "cms-product3d-files-uploaded-file-name": "",
                "is-hino": true,
                "is-e4": false,
                "is-gso": true,
                "created-by": null,
                "updated-by": "12",
                "title": "FM 285 JW - Euro2",
                "cms-product3d-file-id": null,
                "cms-product3d-file-title": ""
            },
            "relationships": {
                "core-attachment": {
                    "data": null
                }
            }
        },
        {
            "type": "cms-products",
            "id": "9365",
            "attributes": {
                "source-system-no": "126",
                "image": "\/assets\/uploads\/products\/sdb6.png",
                "image-small": "\/assets\/uploads\/products\/sdb7.png",
                "image-detail": "\/assets\/uploads\/products\/sdb8.png",
                "image-breadcrumb": null,
                "link-brosur": null,
                "brosur": null,
                "statuses-id": 1,
                "statuses-lookup-code": "",
                "is-homepage": false,
                "sort": 3,
                "slug": "dutro-bus-130-mdbl",
                "cms-product-categories-id": null,
                "cms-product-categories-lookup-code": "",
                "cms-product-categories-meaning": "",
                "cms-product-category-childs-id": 8,
                "cms-product-category-childs-title": "Bus",
                "cms-product-category-childs-source-system-no": "4",
                "cms-product-sub-category-childs-id": 178,
                "cms-product-sub-category-childs-title": "BUS MEDIUM",
                "cms-product3d-files-id": null,
                "cms-product3d-files-uploaded-file-name": "",
                "is-hino": true,
                "is-e4": false,
                "is-gso": true,
                "created-by": null,
                "updated-by": "12",
                "title": "DUTRO BUS 130 MDBL - Euro2",
                "cms-product3d-file-id": null,
                "cms-product3d-file-title": ""
            },
            "relationships": {
                "core-attachment": {
                    "data": null
                }
            }
        },
        {
            "type": "cms-products",
            "id": "10016",
            "attributes": {
                "source-system-no": "203",
                "image": "\/assets\/uploads\/products\/FLX280JW-min.png",
                "image-small": "\/assets\/uploads\/products\/FLX280JW-min.png",
                "image-detail": "",
                "image-breadcrumb": null,
                "link-brosur": "",
                "brosur": null,
                "statuses-id": 1,
                "statuses-lookup-code": "",
                "is-homepage": true,
                "sort": 1,
                "slug": "flx-280-jw",
                "cms-product-categories-id": null,
                "cms-product-categories-lookup-code": "",
                "cms-product-categories-meaning": "",
                "cms-product-category-childs-id": 6,
                "cms-product-category-childs-title": "Ranger",
                "cms-product-category-childs-source-system-no": "2",
                "cms-product-sub-category-childs-id": 182,
                "cms-product-sub-category-childs-title": "CARGO",
                "cms-product3d-files-id": null,
                "cms-product3d-files-uploaded-file-name": "",
                "is-hino": true,
                "is-e4": true,
                "is-gso": true,
                "created-by": null,
                "updated-by": "10",
                "title": "FLX 280 JW - Euro4",
                "cms-product3d-file-id": null,
                "cms-product3d-file-title": ""
            },
            "relationships": {
                "core-attachment": {
                    "data": null
                }
            }
        },
        {
            "type": "cms-products",
            "id": "9971",
            "attributes": {
                "source-system-no": "189",
                "image": "\/assets\/uploads\/products\/136MDL-Box_1.png",
                "image-small": "\/assets\/uploads\/products\/136MDL-Box_1.png",
                "image-detail": "",
                "image-breadcrumb": null,
                "link-brosur": "\/assets\/uploads\/brosur\/Euro4_Dutro_Line_Up_Preview5.pdf",
                "brosur": null,
                "statuses-id": 1,
                "statuses-lookup-code": "",
                "is-homepage": false,
                "sort": 16,
                "slug": "136-mdl-std",
                "cms-product-categories-id": 9,
                "cms-product-categories-lookup-code": "TRUK",
                "cms-product-categories-meaning": "TRUK ",
                "cms-product-category-childs-id": 5,
                "cms-product-category-childs-title": "Dutro",
                "cms-product-category-childs-source-system-no": "1",
                "cms-product-sub-category-childs-id": 181,
                "cms-product-sub-category-childs-title": "CARGO",
                "cms-product3d-files-id": null,
                "cms-product3d-files-uploaded-file-name": "",
                "is-hino": true,
                "is-e4": true,
                "is-gso": true,
                "created-by": null,
                "updated-by": "10",
                "title": "136 MD STD - Euro4",
                "cms-product3d-file-id": null,
                "cms-product3d-file-title": ""
            },
            "relationships": {
                "core-attachment": {
                    "data": null
                }
            }
        },
        {
            "type": "cms-products",
            "id": "9955",
            "attributes": {
                "source-system-no": "164",
                "image": "\/assets\/uploads\/products\/FM280JD_L_Final-02.png",
                "image-small": "\/assets\/uploads\/products\/FM280JD_L_Final-02.png",
                "image-detail": "",
                "image-breadcrumb": null,
                "link-brosur": "\/assets\/uploads\/brosur\/Euro4_Ranger_Line_up_Preview16.pdf",
                "brosur": null,
                "statuses-id": 1,
                "statuses-lookup-code": "",
                "is-homepage": false,
                "sort": 30,
                "slug": "fm-280-jd-abs",
                "cms-product-categories-id": 9,
                "cms-product-categories-lookup-code": "TRUK",
                "cms-product-categories-meaning": "TRUK ",
                "cms-product-category-childs-id": 6,
                "cms-product-category-childs-title": "Ranger",
                "cms-product-category-childs-source-system-no": "2",
                "cms-product-sub-category-childs-id": 183,
                "cms-product-sub-category-childs-title": "DUMP",
                "cms-product3d-files-id": null,
                "cms-product3d-files-uploaded-file-name": "",
                "is-hino": true,
                "is-e4": true,
                "is-gso": true,
                "created-by": null,
                "updated-by": "10",
                "title": "FM 280 JD ABS - Euro4",
                "cms-product3d-file-id": null,
                "cms-product3d-file-title": ""
            },
            "relationships": {
                "core-attachment": {
                    "data": null
                }
            }
        },
        {
            "type": "cms-products",
            "id": "9367",
            "attributes": {
                "source-system-no": "128",
                "image": "\/assets\/uploads\/products\/Picture66.png",
                "image-small": "\/assets\/uploads\/products\/Picture67.png",
                "image-detail": "\/assets\/uploads\/products\/Picture68.png",
                "image-breadcrumb": null,
                "link-brosur": null,
                "brosur": null,
                "statuses-id": 1,
                "statuses-lookup-code": "",
                "is-homepage": false,
                "sort": 4,
                "slug": "fg-245-jk-new-with-abs-system",
                "cms-product-categories-id": null,
                "cms-product-categories-lookup-code": "",
                "cms-product-categories-meaning": "",
                "cms-product-category-childs-id": 6,
                "cms-product-category-childs-title": "Ranger",
                "cms-product-category-childs-source-system-no": "2",
                "cms-product-sub-category-childs-id": 182,
                "cms-product-sub-category-childs-title": "CARGO",
                "cms-product3d-files-id": null,
                "cms-product3d-files-uploaded-file-name": "",
                "is-hino": true,
                "is-e4": false,
                "is-gso": true,
                "created-by": null,
                "updated-by": "12",
                "title": "FG 245 JK ABS - Euro2",
                "cms-product3d-file-id": null,
                "cms-product3d-file-title": ""
            },
            "relationships": {
                "core-attachment": {
                    "data": null
                }
            }
        },
        {
            "type": "cms-products",
            "id": "9956",
            "attributes": {
                "source-system-no": "165",
                "image": "\/assets\/uploads\/products\/FM280JD-mining_spek-dump-white.png",
                "image-small": "\/assets\/uploads\/products\/FM280JD-mining_spek-dump-white.png",
                "image-detail": "",
                "image-breadcrumb": null,
                "link-brosur": "\/assets\/uploads\/brosur\/Euro4_Ranger_Line_up_Preview15.pdf",
                "brosur": null,
                "statuses-id": 1,
                "statuses-lookup-code": "",
                "is-homepage": false,
                "sort": 31,
                "slug": "fm-280-jd-mining-spec",
                "cms-product-categories-id": 9,
                "cms-product-categories-lookup-code": "TRUK",
                "cms-product-categories-meaning": "TRUK ",
                "cms-product-category-childs-id": 6,
                "cms-product-category-childs-title": "Ranger",
                "cms-product-category-childs-source-system-no": "2",
                "cms-product-sub-category-childs-id": 183,
                "cms-product-sub-category-childs-title": "DUMP",
                "cms-product3d-files-id": null,
                "cms-product3d-files-uploaded-file-name": "",
                "is-hino": true,
                "is-e4": true,
                "is-gso": true,
                "created-by": null,
                "updated-by": "12",
                "title": "FM 280 JD (Mining Spec) - Euro4",
                "cms-product3d-file-id": null,
                "cms-product3d-file-title": ""
            },
            "relationships": {
                "core-attachment": {
                    "data": null
                }
            }
        },
        {
            "type": "cms-products",
            "id": "9961",
            "attributes": {
                "source-system-no": "171",
                "image": "\/assets\/uploads\/products\/HINO_RK_rev26.png",
                "image-small": "\/assets\/uploads\/products\/HINO_RK_rev26.png",
                "image-detail": "\/assets\/uploads\/products\/HINO_RK_rev26.png",
                "image-breadcrumb": null,
                "link-brosur": "\/assets\/uploads\/brosur\/Euro4_Bus_Line_Up_preview8.pdf",
                "brosur": null,
                "statuses-id": 1,
                "statuses-lookup-code": "",
                "is-homepage": false,
                "sort": 4,
                "slug": "rm280-std",
                "cms-product-categories-id": 8,
                "cms-product-categories-lookup-code": "BUS",
                "cms-product-categories-meaning": "BUS",
                "cms-product-category-childs-id": 8,
                "cms-product-category-childs-title": "Bus",
                "cms-product-category-childs-source-system-no": "4",
                "cms-product-sub-category-childs-id": 179,
                "cms-product-sub-category-childs-title": "BUS BESAR",
                "cms-product3d-files-id": null,
                "cms-product3d-files-uploaded-file-name": "",
                "is-hino": true,
                "is-e4": true,
                "is-gso": true,
                "created-by": null,
                "updated-by": "12",
                "title": "RM280 STD - Euro4",
                "cms-product3d-file-id": null,
                "cms-product3d-file-title": ""
            },
            "relationships": {
                "core-attachment": {
                    "data": null
                }
            }
        }
    ],
    "meta": {
        "pagination": {
            "total": 142,
            "count": 10,
            "per_page": 10,
            "current_page": 1,
            "total_pages": 15
        }
    },
    "links": {
        "self": "https:\/\/my.hino.co.id\/myhinoenhancement\/\/cms-products?filter=&include=core-attachment%2C%20core-attachment%2C%20core-attachment%2C%20core-attachment%2C%20core-attachment%2C%20cms-product3d-file-attachment%2C%20cms-product-category%2C%20cms-product-category-child%2C%20cms-product-sub-category-child&isFromHome=true&per_page=10&page=1",
        "first": "https:\/\/my.hino.co.id\/myhinoenhancement\/\/cms-products?filter=&include=core-attachment%2C%20core-attachment%2C%20core-attachment%2C%20core-attachment%2C%20core-attachment%2C%20cms-product3d-file-attachment%2C%20cms-product-category%2C%20cms-product-category-child%2C%20cms-product-sub-category-child&isFromHome=true&per_page=10&page=1",
        "next": "https:\/\/my.hino.co.id\/myhinoenhancement\/\/cms-products?filter=&include=core-attachment%2C%20core-attachment%2C%20core-attachment%2C%20core-attachment%2C%20core-attachment%2C%20cms-product3d-file-attachment%2C%20cms-product-category%2C%20cms-product-category-child%2C%20cms-product-sub-category-child&isFromHome=true&per_page=10&page=2",
        "last": "https:\/\/my.hino.co.id\/myhinoenhancement\/\/cms-products?filter=&include=core-attachment%2C%20core-attachment%2C%20core-attachment%2C%20core-attachment%2C%20core-attachment%2C%20cms-product3d-file-attachment%2C%20cms-product-category%2C%20cms-product-category-child%2C%20cms-product-sub-category-child&isFromHome=true&per_page=10&page=15"
    }
}