{
    "data": [
        {
            "type": "booking-services",
            "id": "107",
            "attributes": {
                "user-managements-id": "4",
                "user-managements-nama-lengkap": "Muhammad Reza Fahlevi",
                "vehicle-managements-id": "46",
                "vehicle-managements-plate-or-cabin-no": "",
                "vehicle-managements-chassis-number": "",
                "dealers-id": "7739",
                "booking-date-initial": "2022-02-15 00:00:00",
                "final-booking-date": null,
                "booking-statuses-id": "4",
                "booking-statuses-name": "CANCELLED_BY_CUSTOMER",
                "booking-statuses-description": "Cancelled By Customer",
                "created-by": "18",
                "updated-by": "18",
                "dealers-dealer-id": "73 MOTOR",
                "dealers-dealer-latitude": "",
                "dealers-dealer-longitude": "",
                "model-name": "",
                "booking-date": "2022-02-15 00:00:00",
                "booking-time-initial": "1900-01-01 13:40:00",
                "booking-time-final": null,
                "cancel-reason": null,
                "vehicle-color": "",
                "plate-no": "",
                "variant-name": "",
                "production-year": "",
                "nomor-handphone": "089630960820",
                "dealer-phone": "085776715985",
                "dealer-city": "KABUPATEN MALANG",
                "new-id": null,
                "dealer-city-name": "HINO KABUPATEN MALANG - 73 MOTOR",
                "formatted-booking-date-initial": "15\/02\/2022",
                "formatted-booking-date-final": "02\/08\/2022",
                "formatted-booking-time-initial": "13:40",
                "formatted-booking-time-final": "16:25",
                "attachment-id": null,
                "attachment-name": "",
                "alasan-booking": null,
                "booking-type-id": null,
                "booking-number": null,
                "booking-type-name": ""
            },
            "relationships": {
                "user-management": {
                    "data": {
                        "type": "userManagement",
                        "id": "4"
                    }
                }
            }
        },
        {
            "type": "booking-services",
            "id": "109",
            "attributes": {
                "user-managements-id": "4",
                "user-managements-nama-lengkap": "Muhammad Reza Fahlevi",
                "vehicle-managements-id": "22",
                "vehicle-managements-plate-or-cabin-no": "",
                "vehicle-managements-chassis-number": "",
                "dealers-id": "7739",
                "booking-date-initial": "2022-02-15 00:00:00",
                "final-booking-date": null,
                "booking-statuses-id": "4",
                "booking-statuses-name": "CANCELLED_BY_CUSTOMER",
                "booking-statuses-description": "Cancelled By Customer",
                "created-by": "18",
                "updated-by": "18",
                "dealers-dealer-id": "73 MOTOR",
                "dealers-dealer-latitude": "",
                "dealers-dealer-longitude": "",
                "model-name": "",
                "booking-date": "2022-02-15 00:00:00",
                "booking-time-initial": "1900-01-01 14:15:00",
                "booking-time-final": null,
                "cancel-reason": null,
                "vehicle-color": "",
                "plate-no": "",
                "variant-name": "",
                "production-year": "",
                "nomor-handphone": "089630960820",
                "dealer-phone": "085776715985",
                "dealer-city": "KABUPATEN MALANG",
                "new-id": null,
                "dealer-city-name": "HINO KABUPATEN MALANG - 73 MOTOR",
                "formatted-booking-date-initial": "15\/02\/2022",
                "formatted-booking-date-final": "02\/08\/2022",
                "formatted-booking-time-initial": "14:15",
                "formatted-booking-time-final": "16:25",
                "attachment-id": null,
                "attachment-name": "",
                "alasan-booking": null,
                "booking-type-id": null,
                "booking-number": null,
                "booking-type-name": ""
            },
            "relationships": {
                "user-management": {
                    "data": {
                        "type": "userManagement",
                        "id": "4"
                    }
                }
            }
        },
        {
            "type": "booking-services",
            "id": "112",
            "attributes": {
                "user-managements-id": "4",
                "user-managements-nama-lengkap": "Muhammad Reza Fahlevi",
                "vehicle-managements-id": "18",
                "vehicle-managements-plate-or-cabin-no": "B33013KS",
                "vehicle-managements-chassis-number": "R2222222222222222",
                "dealers-id": "7740",
                "booking-date-initial": "2022-02-14 00:00:00",
                "final-booking-date": null,
                "booking-statuses-id": "4",
                "booking-statuses-name": "CANCELLED_BY_CUSTOMER",
                "booking-statuses-description": "Cancelled By Customer",
                "created-by": null,
                "updated-by": "18",
                "dealers-dealer-id": "GUNUNG MAS MOTOR",
                "dealers-dealer-latitude": "",
                "dealers-dealer-longitude": "",
                "model-name": "FC 190 J - Euro2",
                "booking-date": "2022-02-14 00:00:00",
                "booking-time-initial": "1900-01-01 08:00:00",
                "booking-time-final": null,
                "cancel-reason": null,
                "vehicle-color": "",
                "plate-no": "B33013KS",
                "variant-name": "model 2 variant 2",
                "production-year": "2021",
                "nomor-handphone": "089630960820",
                "dealer-phone": "085776715985",
                "dealer-city": "KABUPATEN MALANG",
                "new-id": null,
                "dealer-city-name": "HINO KABUPATEN MALANG - GUNUNG MAS MOTOR",
                "formatted-booking-date-initial": "14\/02\/2022",
                "formatted-booking-date-final": "02\/08\/2022",
                "formatted-booking-time-initial": "08:00",
                "formatted-booking-time-final": "16:25",
                "attachment-id": null,
                "attachment-name": "",
                "alasan-booking": null,
                "booking-type-id": null,
                "booking-number": null,
                "booking-type-name": ""
            },
            "relationships": {
                "user-management": {
                    "data": {
                        "type": "userManagement",
                        "id": "4"
                    }
                }
            }
        },
        {
            "type": "booking-services",
            "id": "102",
            "attributes": {
                "user-managements-id": "373",
                "user-managements-nama-lengkap": "",
                "vehicle-managements-id": "82",
                "vehicle-managements-plate-or-cabin-no": "H123NO",
                "vehicle-managements-chassis-number": "MJEC1JG43M0123456",
                "dealers-id": "7740",
                "booking-date-initial": "2022-02-16 00:00:00",
                "final-booking-date": null,
                "booking-statuses-id": "4",
                "booking-statuses-name": "CANCELLED_BY_CUSTOMER",
                "booking-statuses-description": "Cancelled By Customer",
                "created-by": null,
                "updated-by": "196",
                "dealers-dealer-id": "GUNUNG MAS MOTOR",
                "dealers-dealer-latitude": "",
                "dealers-dealer-longitude": "",
                "model-name": "",
                "booking-date": "2022-02-16 00:00:00",
                "booking-time-initial": "1900-01-01 14:00:00",
                "booking-time-final": null,
                "cancel-reason": null,
                "vehicle-color": "Hijau",
                "plate-no": "H123NO",
                "variant-name": "130HD X POWER",
                "production-year": "2021",
                "nomor-handphone": "",
                "dealer-phone": "085776715985",
                "dealer-city": "KABUPATEN MALANG",
                "new-id": null,
                "dealer-city-name": "HINO KABUPATEN MALANG - GUNUNG MAS MOTOR",
                "formatted-booking-date-initial": "16\/02\/2022",
                "formatted-booking-date-final": "02\/08\/2022",
                "formatted-booking-time-initial": "14:00",
                "formatted-booking-time-final": "16:25",
                "attachment-id": null,
                "attachment-name": "",
                "alasan-booking": null,
                "booking-type-id": null,
                "booking-number": null,
                "booking-type-name": ""
            },
            "relationships": {
                "user-management": {
                    "data": null
                }
            }
        },
        {
            "type": "booking-services",
            "id": "100",
            "attributes": {
                "user-managements-id": "148",
                "user-managements-nama-lengkap": "",
                "vehicle-managements-id": "62",
                "vehicle-managements-plate-or-cabin-no": "RBP",
                "vehicle-managements-chassis-number": "1234567890123456b",
                "dealers-id": "7740",
                "booking-date-initial": "2022-02-18 00:00:00",
                "final-booking-date": null,
                "booking-statuses-id": "3",
                "booking-statuses-name": "CANCELLED",
                "booking-statuses-description": "Cancelled",
                "created-by": "107",
                "updated-by": "107",
                "dealers-dealer-id": "GUNUNG MAS MOTOR",
                "dealers-dealer-latitude": "",
                "dealers-dealer-longitude": "",
                "model-name": "",
                "booking-date": "2022-02-18 00:00:00",
                "booking-time-initial": "1900-01-01 16:55:00",
                "booking-time-final": null,
                "cancel-reason": null,
                "vehicle-color": "",
                "plate-no": "RBP",
                "variant-name": "Test",
                "production-year": "2022",
                "nomor-handphone": "",
                "dealer-phone": "085776715985",
                "dealer-city": "KABUPATEN MALANG",
                "new-id": null,
                "dealer-city-name": "HINO KABUPATEN MALANG - GUNUNG MAS MOTOR",
                "formatted-booking-date-initial": "18\/02\/2022",
                "formatted-booking-date-final": "02\/08\/2022",
                "formatted-booking-time-initial": "16:55",
                "formatted-booking-time-final": "16:25",
                "attachment-id": null,
                "attachment-name": "",
                "alasan-booking": null,
                "booking-type-id": null,
                "booking-number": null,
                "booking-type-name": ""
            },
            "relationships": {
                "user-management": {
                    "data": null
                }
            }
        },
        {
            "type": "booking-services",
            "id": "99",
            "attributes": {
                "user-managements-id": "148",
                "user-managements-nama-lengkap": "",
                "vehicle-managements-id": "62",
                "vehicle-managements-plate-or-cabin-no": "RBP",
                "vehicle-managements-chassis-number": "1234567890123456b",
                "dealers-id": "7740",
                "booking-date-initial": "2022-02-18 00:00:00",
                "final-booking-date": null,
                "booking-statuses-id": "4",
                "booking-statuses-name": "CANCELLED_BY_CUSTOMER",
                "booking-statuses-description": "Cancelled By Customer",
                "created-by": null,
                "updated-by": "107",
                "dealers-dealer-id": "GUNUNG MAS MOTOR",
                "dealers-dealer-latitude": "",
                "dealers-dealer-longitude": "",
                "model-name": "",
                "booking-date": "2022-02-18 00:00:00",
                "booking-time-initial": "1900-01-01 16:55:00",
                "booking-time-final": null,
                "cancel-reason": null,
                "vehicle-color": "",
                "plate-no": "RBP",
                "variant-name": "Test",
                "production-year": "2022",
                "nomor-handphone": "",
                "dealer-phone": "085776715985",
                "dealer-city": "KABUPATEN MALANG",
                "new-id": null,
                "dealer-city-name": "HINO KABUPATEN MALANG - GUNUNG MAS MOTOR",
                "formatted-booking-date-initial": "18\/02\/2022",
                "formatted-booking-date-final": "02\/08\/2022",
                "formatted-booking-time-initial": "16:55",
                "formatted-booking-time-final": "16:25",
                "attachment-id": null,
                "attachment-name": "",
                "alasan-booking": null,
                "booking-type-id": null,
                "booking-number": null,
                "booking-type-name": ""
            },
            "relationships": {
                "user-management": {
                    "data": null
                }
            }
        },
        {
            "type": "booking-services",
            "id": "105",
            "attributes": {
                "user-managements-id": "148",
                "user-managements-nama-lengkap": "",
                "vehicle-managements-id": "78",
                "vehicle-managements-plate-or-cabin-no": "RKSL",
                "vehicle-managements-chassis-number": "AHSJBABABANAHAHA1",
                "dealers-id": "7742",
                "booking-date-initial": "2022-02-16 00:00:00",
                "final-booking-date": null,
                "booking-statuses-id": "4",
                "booking-statuses-name": "CANCELLED_BY_CUSTOMER",
                "booking-statuses-description": "Cancelled By Customer",
                "created-by": "107",
                "updated-by": "107",
                "dealers-dealer-id": "SEJATI MOTOR",
                "dealers-dealer-latitude": "",
                "dealers-dealer-longitude": "",
                "model-name": "FC Bus - Euro2",
                "booking-date": "2022-02-16 00:00:00",
                "booking-time-initial": "1900-01-01 11:40:00",
                "booking-time-final": null,
                "cancel-reason": null,
                "vehicle-color": "Putih",
                "plate-no": "RKSL",
                "variant-name": "Variant 3",
                "production-year": "2010",
                "nomor-handphone": "",
                "dealer-phone": "085776715985",
                "dealer-city": "KABUPATEN MALANG",
                "new-id": null,
                "dealer-city-name": "HINO KABUPATEN MALANG - SEJATI MOTOR",
                "formatted-booking-date-initial": "16\/02\/2022",
                "formatted-booking-date-final": "02\/08\/2022",
                "formatted-booking-time-initial": "11:40",
                "formatted-booking-time-final": "16:25",
                "attachment-id": null,
                "attachment-name": "",
                "alasan-booking": null,
                "booking-type-id": null,
                "booking-number": null,
                "booking-type-name": ""
            },
            "relationships": {
                "user-management": {
                    "data": null
                }
            }
        },
        {
            "type": "booking-services",
            "id": "98",
            "attributes": {
                "user-managements-id": "358",
                "user-managements-nama-lengkap": "Aly Arianto",
                "vehicle-managements-id": "65",
                "vehicle-managements-plate-or-cabin-no": "f2493fgh",
                "vehicle-managements-chassis-number": "MJEFM8JW1HJE11101",
                "dealers-id": "7742",
                "booking-date-initial": "2022-02-18 00:00:00",
                "final-booking-date": null,
                "booking-statuses-id": "3",
                "booking-statuses-name": "CANCELLED",
                "booking-statuses-description": "Cancelled",
                "created-by": null,
                "updated-by": "181",
                "dealers-dealer-id": "SEJATI MOTOR",
                "dealers-dealer-latitude": "",
                "dealers-dealer-longitude": "",
                "model-name": "DUTRO 130 HD LSD - Euro2",
                "booking-date": "2022-02-18 00:00:00",
                "booking-time-initial": "1900-01-01 15:10:00",
                "booking-time-final": null,
                "cancel-reason": null,
                "vehicle-color": "Hijau",
                "plate-no": "f2493fgh",
                "variant-name": "Dutro",
                "production-year": "2020",
                "nomor-handphone": "082299706177",
                "dealer-phone": "085776715985",
                "dealer-city": "KABUPATEN MALANG",
                "new-id": null,
                "dealer-city-name": "HINO KABUPATEN MALANG - SEJATI MOTOR",
                "formatted-booking-date-initial": "18\/02\/2022",
                "formatted-booking-date-final": "02\/08\/2022",
                "formatted-booking-time-initial": "15:10",
                "formatted-booking-time-final": "16:25",
                "attachment-id": null,
                "attachment-name": "",
                "alasan-booking": null,
                "booking-type-id": null,
                "booking-number": null,
                "booking-type-name": ""
            },
            "relationships": {
                "user-management": {
                    "data": {
                        "type": "userManagement",
                        "id": "358"
                    }
                }
            }
        },
        {
            "type": "booking-services",
            "id": "104",
            "attributes": {
                "user-managements-id": "373",
                "user-managements-nama-lengkap": "",
                "vehicle-managements-id": "82",
                "vehicle-managements-plate-or-cabin-no": "H123NO",
                "vehicle-managements-chassis-number": "MJEC1JG43M0123456",
                "dealers-id": "7745",
                "booking-date-initial": "2022-02-17 00:00:00",
                "final-booking-date": null,
                "booking-statuses-id": "4",
                "booking-statuses-name": "CANCELLED_BY_CUSTOMER",
                "booking-statuses-description": "Cancelled By Customer",
                "created-by": "196",
                "updated-by": "196",
                "dealers-dealer-id": "BAROKAH",
                "dealers-dealer-latitude": "",
                "dealers-dealer-longitude": "",
                "model-name": "",
                "booking-date": "2022-02-17 00:00:00",
                "booking-time-initial": "1900-01-01 15:20:00",
                "booking-time-final": null,
                "cancel-reason": null,
                "vehicle-color": "Hijau",
                "plate-no": "H123NO",
                "variant-name": "130HD X POWER",
                "production-year": "2021",
                "nomor-handphone": "",
                "dealer-phone": "085776715985",
                "dealer-city": "KABUPATEN MALANG",
                "new-id": null,
                "dealer-city-name": "HINO KABUPATEN MALANG - BAROKAH",
                "formatted-booking-date-initial": "17\/02\/2022",
                "formatted-booking-date-final": "02\/08\/2022",
                "formatted-booking-time-initial": "15:20",
                "formatted-booking-time-final": "16:25",
                "attachment-id": null,
                "attachment-name": "",
                "alasan-booking": null,
                "booking-type-id": null,
                "booking-number": null,
                "booking-type-name": ""
            },
            "relationships": {
                "user-management": {
                    "data": null
                }
            }
        },
        {
            "type": "booking-services",
            "id": "103",
            "attributes": {
                "user-managements-id": "373",
                "user-managements-nama-lengkap": "",
                "vehicle-managements-id": "82",
                "vehicle-managements-plate-or-cabin-no": "H123NO",
                "vehicle-managements-chassis-number": "MJEC1JG43M0123456",
                "dealers-id": "7745",
                "booking-date-initial": "2022-02-17 00:00:00",
                "final-booking-date": null,
                "booking-statuses-id": "4",
                "booking-statuses-name": "CANCELLED_BY_CUSTOMER",
                "booking-statuses-description": "Cancelled By Customer",
                "created-by": null,
                "updated-by": "196",
                "dealers-dealer-id": "BAROKAH",
                "dealers-dealer-latitude": "",
                "dealers-dealer-longitude": "",
                "model-name": "",
                "booking-date": "2022-02-17 00:00:00",
                "booking-time-initial": "1900-01-01 15:20:00",
                "booking-time-final": null,
                "cancel-reason": null,
                "vehicle-color": "Hijau",
                "plate-no": "H123NO",
                "variant-name": "130HD X POWER",
                "production-year": "2021",
                "nomor-handphone": "",
                "dealer-phone": "085776715985",
                "dealer-city": "KABUPATEN MALANG",
                "new-id": null,
                "dealer-city-name": "HINO KABUPATEN MALANG - BAROKAH",
                "formatted-booking-date-initial": "17\/02\/2022",
                "formatted-booking-date-final": "02\/08\/2022",
                "formatted-booking-time-initial": "15:20",
                "formatted-booking-time-final": "16:25",
                "attachment-id": null,
                "attachment-name": "",
                "alasan-booking": null,
                "booking-type-id": null,
                "booking-number": null,
                "booking-type-name": ""
            },
            "relationships": {
                "user-management": {
                    "data": null
                }
            }
        }
    ],
    "included": [
        {
            "type": "userManagement",
            "id": "4",
            "attributes": {
                "email": "dxdreza@gmail.com",
                "nomor-handphone": "089630960820",
                "nama-lengkap": "Muhammad Reza Fahlevi",
                "business-segments-id": "BUS",
                "business-segments-name": "Bus",
                "jabatan-id": "2",
                "jabatan-name": "MEKANIK",
                "nomor-tlp": "089634614659",
                "tanggal-lahir": "1999-01-03",
                "alamat": "Jl. SMPN 7 Kandangan, Gambah Dalam, Kec. Kandangan, Kabupaten Hulu Sungai Selatan, Kalimantan Selatan 71217, Indonesia",
                "long": "115.26231194877819",
                "lat": "-2.753556290082754",
                "provinsi": "Kalimantan Selatan",
                "kota-kabupaten": "Kabupaten Hulu Sungai Selatan",
                "kecamatan": "Kandangan",
                "kelurahan": "Gambah Dalam",
                "jumlah-unit-dutro": 4,
                "jumlah-unit-ranger": 1,
                "jumlah-unit-profia": 11,
                "jumlah-unit-bus": 1,
                "profile-pictures": "445",
                "profile-pictures-id": 445,
                "profile-pictures-original-file-name": "profile.jpg",
                "profile-pictures-uploaded-file-name": "62e0b12dc3289_profile.jpg",
                "last-login": "2022-08-01 10:52:05",
                "login-count": 809,
                "is-new-user": false,
                "is-account-verified": true,
                "is-email-valid": true,
                "employee-no": "USER1",
                "core-users-id": "18",
                "core-users-name": "User Satu",
                "created-by": null,
                "updated-by": "18",
                "nama-perusahaan": "PT. TEST",
                "password": "$2y$10$4p1RN9PA\/dg52FIOFsT7\/e0bKoj5.dHb4Mvw1EkF\/r20tdQO\/ot0q",
                "confirm-password": "$2y$10$4p1RN9PA\/dg52FIOFsT7\/e0bKoj5.dHb4Mvw1EkF\/r20tdQO\/ot0q",
                "token": "d295d55990e8b90371661ac349a08035",
                "is-hearts": false,
                "referral-code": null,
                "is-sso": false
            }
        },
        {
            "type": "userManagement",
            "id": "358",
            "attributes": {
                "email": "abiyyu.arianto99@gmail.com",
                "nomor-handphone": "082299706177",
                "nama-lengkap": "Aly Arianto",
                "business-segments-id": "TAMBANG",
                "business-segments-name": "Tambang",
                "jabatan-id": "1",
                "jabatan-name": "DRIVER",
                "nomor-tlp": "",
                "tanggal-lahir": "1999-12-23",
                "alamat": "Jl. Jend. Sudirman No.91-27, RT.04\/RW.03, Sempur, Kecamatan Bogor Tengah, Kota Bogor, Jawa Barat 16121, Indonesia",
                "long": "106.79736141969109",
                "lat": "-6.590400790895797",
                "provinsi": "Bali",
                "kota-kabupaten": "Kota Bogor",
                "kecamatan": "Kecamatan Bogor Tengah",
                "kelurahan": "Sempur",
                "jumlah-unit-dutro": 12,
                "jumlah-unit-ranger": 1,
                "jumlah-unit-profia": 0,
                "jumlah-unit-bus": 9,
                "profile-pictures": null,
                "profile-pictures-id": "",
                "profile-pictures-original-file-name": "",
                "profile-pictures-uploaded-file-name": "",
                "last-login": "2022-08-02 09:52:34",
                "login-count": 324,
                "is-new-user": false,
                "is-account-verified": true,
                "is-email-valid": true,
                "employee-no": null,
                "core-users-id": "181",
                "core-users-name": "Aly Arianto",
                "created-by": null,
                "updated-by": "181",
                "nama-perusahaan": "AMN Indonesia",
                "password": "$2y$10$sK2QkhRjndodYpZDK5RC7Oi1j57TrAPFmoqYyKbk5aWfFhbM7gb3q",
                "confirm-password": "$2y$10$sK2QkhRjndodYpZDK5RC7Oi1j57TrAPFmoqYyKbk5aWfFhbM7gb3q",
                "token": null,
                "is-hearts": false,
                "referral-code": null,
                "is-sso": null
            }
        }
    ],
    "meta": {
        "pagination": {
            "total": 200,
            "count": 10,
            "per_page": 10,
            "current_page": 1,
            "total_pages": 20
        }
    },
    "links": {
        "self": "https:\/\/my.hino.co.id\/myhinoenhancement\/booking-services?filter=&include=user-management%2C%20vehicle-management%2C%20dealer%2C%20booking-status&isFromWeb=true&per_page=10&page=1",
        "first": "https:\/\/my.hino.co.id\/myhinoenhancement\/booking-services?filter=&include=user-management%2C%20vehicle-management%2C%20dealer%2C%20booking-status&isFromWeb=true&per_page=10&page=1",
        "next": "https:\/\/my.hino.co.id\/myhinoenhancement\/booking-services?filter=&include=user-management%2C%20vehicle-management%2C%20dealer%2C%20booking-status&isFromWeb=true&per_page=10&page=2",
        "last": "https:\/\/my.hino.co.id\/myhinoenhancement\/booking-services?filter=&include=user-management%2C%20vehicle-management%2C%20dealer%2C%20booking-status&isFromWeb=true&per_page=10&page=20"
    }
}